…
### Determine whether an ASV is unique to genomes they’re found in

Instead of looking at the number of ASVs per genome, we want to see the
number of genomes per ASV.

``` r
v34 %>% 
  group_by(asv) %>% 
  summarise(n_genomes = n()) %>% 
  count(n_genomes) %>% 
  mutate(fraction = n/sum(n))
```

    ## # A tibble: 86 × 3
    ##    n_genomes     n fraction
    ##        <int> <int>    <dbl>
    ##  1         1  7246  0.779  
    ##  2         2   947  0.102  
    ##  3         3   365  0.0392 
    ##  4         4   167  0.0179 
    ##  5         5   111  0.0119 
    ##  6         6    70  0.00752
    ##  7         7    61  0.00656
    ##  8         8    43  0.00462
    ##  9         9    28  0.00301
    ## 10        10    24  0.00258
    ## # ℹ 76 more rows
…
We can see that the number of ASVs increase at a rate of about 2.5 ASV
per 20 copies of *rrn* operon of the v4 region in the genome

Now let’s look at the specificity of an ASV for a genome

``` r
v4 %>% 
  group_by(asv) %>% 
  summarise(n_genomes = n()) %>% 
  count(n_genomes) %>% 
  mutate(fraction = n/sum(n))
```

    ## # A tibble: 80 × 3
    ##    n_genomes     n fraction
    ##        <int> <int>    <dbl>
    ##  1         1  4592  0.759  
    ##  2         2   633  0.105  
    ##  3         3   260  0.0430 
    ##  4         4   120  0.0198 
    ##  5         5    80  0.0132 
    ##  6         6    49  0.00810
    ##  7         7    40  0.00661
    ##  8         8    31  0.00512
    ##  9         9    25  0.00413
    ## 10        10    22  0.00364
    ## # ℹ 70 more rows
…
